{
    "coord": {
        "lon":1.6676,
        "lat":47.5968
    },
    "list": [{
        "main": {
            "aqi":1
        },
        "components": {
            "co":240.33,
            "no":0.31,
            "no2":1.39,
            "o3":64.37,
            "so2":0.46,
            "pm2_5":1.4,
            "pm10":1.91,
            "nh3":0.87
            
        },
        "dt":1644840000
        
    }]
}
